<svg xmlns="http://www.w3.org/2000/svg" width="24" height="24" viewBox="0 0 24 24">
  <polygon fill="#1A1A1A" fill-rule="evenodd" points="12 10.444 17.444 5 19 6.556 13.556 12 19 17.444 17.444 19 12 13.556 6.556 19 5 17.444 10.444 12 5 6.556 6.556 5"/>
</svg>
