<svg xmlns="http://www.w3.org/2000/svg" width="8.467mm" height="8.467mm" viewBox="0 0 24 24">
  <defs>
    <style>
      .a {
        fill: #fff;
      }
    </style>
  </defs>
  <title>Artboard 1</title>
  <g>
    <path class="a" d="M3,8A.945.945,0,0,0,2,9V19a.945.945,0,0,0,1,1,.945.945,0,0,0,1-1V9A.945.945,0,0,0,3,8Z"/>
    <path class="a" d="M19.1,7.1H14.5V3.8A1.88,1.88,0,0,0,12.6,2h-.2a3.456,3.456,0,0,0-2,.7L5.9,6.8a2.518,2.518,0,0,0-.9,2v8.6A2.788,2.788,0,0,0,7.9,20h6.9a4.7,4.7,0,0,0,4.3-2.6l2.4-4.9a3.922,3.922,0,0,0,.4-1.8v-1A2.577,2.577,0,0,0,19.1,7.1Z"/>
  </g>
  <g>
    <path d="M3,8A.945.945,0,0,0,2,9V19a.945.945,0,0,0,1,1,.945.945,0,0,0,1-1V9A.945.945,0,0,0,3,8Z"/>
    <path d="M19.1,7.1H14.5V3.8A1.88,1.88,0,0,0,12.6,2h-.2a3.456,3.456,0,0,0-2,.7L5.9,6.8a2.518,2.518,0,0,0-.9,2v8.6A2.788,2.788,0,0,0,7.9,20h6.9a4.7,4.7,0,0,0,4.3-2.6l2.4-4.9a3.922,3.922,0,0,0,.4-1.8v-1A2.577,2.577,0,0,0,19.1,7.1Zm.9,3.6a2.92,2.92,0,0,1-.2.9l-2.4,4.9a2.635,2.635,0,0,1-2.5,1.4h-7a.689.689,0,0,1-.9-.6V8.8a.52.52,0,0,1,.2-.4l4.5-4.1a.367.367,0,0,1,.3-.1.472.472,0,0,1,.5.5V7.3a1.88,1.88,0,0,0,1.9,1.8h4.7a.808.808,0,0,1,.9.7Z"/>
  </g>
</svg>
